<svg xmlns="http://www.w3.org/2000/svg" viewBox="0 0 19 17" width="19" height="17">
	<style>
		tspan { white-space:pre }
		.shp0 { fill: #d28456 } 
	</style>
	<g id="контент.">
		<g id="блок 2.">
			<g id="4.">
				<path id="arrow" class="shp0" d="M9.14,16.64c0.1,0.1 0.23,0.15 0.35,0.15c0.13,0 0.26,-0.05 0.35,-0.15l9,-9.22c0.2,-0.2 0.2,-0.52 0,-0.72c-0.2,-0.2 -0.51,-0.2 -0.71,0l-8.64,8.86l-8.64,-8.86c-0.2,-0.2 -0.51,-0.2 -0.71,0c-0.2,0.2 -0.2,0.52 0,0.72zM9.14,10.3c0.1,0.1 0.23,0.15 0.35,0.15c0.13,0 0.26,-0.05 0.35,-0.15l9,-9.22c0.2,-0.2 0.2,-0.52 0,-0.72c-0.2,-0.2 -0.51,-0.2 -0.71,0l-8.64,8.86l-8.64,-8.86c-0.2,-0.2 -0.51,-0.2 -0.71,0c-0.2,0.2 -0.2,0.52 0,0.72z" />
			</g>
		</g>
	</g>
</svg>