<svg xmlns="http://www.w3.org/2000/svg" viewBox="0 0 65 43" width="65" height="43">
	<style>
		tspan { white-space:pre }
		.shp0 { fill: #87d3e7 } 
	</style>
	<path id="’’" class="shp0" d="M29.85,14.91c0,-8.48 -6.51,-13.94 -14.85,-13.94c-8.48,0 -15,5.45 -15,13.94c0,6.82 4.54,11.67 10.6,13.33l-3.94,13.79h15l7.12,-21.81c0.76,-1.82 1.06,-3.03 1.06,-5.3zM65,14.91c0,-8.48 -6.51,-13.94 -14.85,-13.94c-8.48,0 -15,5.45 -15,13.94c0,6.82 4.54,11.67 10.6,13.33l-3.94,13.79h15l7.12,-21.81c0.76,-1.82 1.06,-3.03 1.06,-5.3z" />
</svg>