<svg xmlns="http://www.w3.org/2000/svg" viewBox="0 0 30 42" width="30" height="42">
	<style>
		tspan { white-space:pre }
		.shp0 { fill: #d28456 } 
	</style>
	<path id="Фигура 19" class="shp0" d="M16.51,0.57c-5.2,13.14 -10.37,26.29 -15.54,39.44c1.13,0.34 2.24,0.78 3.42,1.02c2.05,0.47 4.18,0.56 6.28,0.39c6.05,-0.52 11.8,-3.8 15.33,-8.74c3.68,-5.02 4.91,-11.72 3.29,-17.73c-1.64,-6.46 -6.54,-12 -12.78,-14.38z" />
</svg>