<svg xmlns="http://www.w3.org/2000/svg" viewBox="0 0 43 43" width="43" height="43">
	<style>
		tspan { white-space:pre }
		.shp0 { fill: #d28456 } 
	</style>
	<g id="контент.">
		<g id="блок 2.">
			<g id="4.">
				<g id="icon.">
					<path id="Фигура 7" class="shp0" d="M21.75 0.5C10.01 0.5 0.5 10.01 0.5 21.75C0.5 28.45 3.6 34.42 8.44 38.31L0.5 43L21.75 43C33.49 43 43 33.49 43 21.75C43 10.01 33.48 0.5 21.75 0.5ZM19.84 32.14L12.14 24.59L14.81 21.87L19.22 26.19L28.36 12.45L31.54 14.57L19.84 32.14Z" />
				</g>
			</g>
		</g>
	</g>
</svg>