<svg xmlns="http://www.w3.org/2000/svg" viewBox="0 0 42 43" width="42" height="43">
	<style>
		tspan { white-space:pre }
		.shp0 { fill: #d28456 } 
	</style>
	<g id="контент.">
		<g id="блок 2.">
			<g id="2.">
				<g id="icon.">
					<path id="Фигура 4" class="shp0" d="M28.28 24.77C28.28 25.67 27.55 26.39 26.65 26.39C25.76 26.39 25.03 25.67 25.03 24.77C25.03 23.88 25.76 23.15 26.65 23.15C27.55 23.15 28.28 23.88 28.28 24.77ZM17.97 18.19C17.97 17.3 17.24 16.57 16.34 16.57C15.45 16.57 14.72 17.3 14.72 18.19C14.72 19.09 15.45 19.81 16.34 19.81C17.24 19.81 17.97 19.09 17.97 18.19ZM41.86 26.37C42.24 27.52 41.83 28.78 40.85 29.49L37.42 31.98C36.95 32.32 36.59 32.81 36.41 33.37L35.1 37.39C34.73 38.54 33.65 39.32 32.44 39.32L28.21 39.32C27.62 39.32 27.04 39.51 26.57 39.85L23.14 42.34C22.16 43.05 20.84 43.05 19.86 42.34L16.43 39.85C15.96 39.51 15.38 39.32 14.79 39.32L10.56 39.32C9.35 39.32 8.27 38.54 7.9 37.39L6.59 33.37C6.41 32.81 6.05 32.32 5.58 31.98L2.15 29.49C1.17 28.78 0.76 27.52 1.14 26.37L2.44 22.35C2.63 21.79 2.63 21.19 2.44 20.63L1.14 16.61C0.76 15.46 1.17 14.2 2.15 13.49L5.58 11C6.05 10.66 6.41 10.17 6.59 9.61L7.9 5.59C8.27 4.44 9.34 3.66 10.55 3.66L14.79 3.66C15.38 3.66 15.95 3.48 16.43 3.13L19.86 0.64C20.84 -0.07 22.16 -0.07 23.14 0.64L26.57 3.13C27.04 3.48 27.62 3.66 28.21 3.66L32.44 3.66C33.65 3.66 34.73 4.44 35.1 5.59L36.41 9.61C36.59 10.17 36.94 10.66 37.42 11L40.85 13.49C41.83 14.2 42.24 15.46 41.86 16.61L40.55 20.63C40.37 21.19 40.37 21.79 40.55 22.35L41.86 26.37ZM16.34 22.1C18.51 22.1 20.26 20.35 20.26 18.19C20.26 16.03 18.51 14.28 16.34 14.28C14.18 14.28 12.43 16.03 12.43 18.19C12.43 20.35 14.18 22.1 16.34 22.1ZM27.36 15.93C27.7 15.52 27.64 14.92 27.24 14.59C26.83 14.25 26.23 14.3 25.89 14.71L15.63 27.06C15.29 27.46 15.35 28.06 15.75 28.4C16.16 28.73 16.76 28.68 17.1 28.27L27.36 15.93ZM30.57 24.77C30.57 22.61 28.82 20.86 26.65 20.86C24.49 20.86 22.74 22.61 22.74 24.77C22.74 26.93 24.49 28.68 26.65 28.68C28.82 28.68 30.57 26.93 30.57 24.77Z" />
				</g>
			</g>
		</g>
	</g>
</svg>