<svg xmlns="http://www.w3.org/2000/svg" viewBox="0 0 41 45" width="41" height="45">
	<style>
		tspan { white-space:pre }
		.shp0 { fill: #d28456 } 
	</style>
	<g id="контент.">
		<g id="блок 2.">
			<g id="3.">
				<g id="icon.">
					<path id="Фигура 6" class="shp0" d="M11.46 24.88L11.46 41.14C11.46 41.14 11.58 39.87 18.4 42.29C18.4 42.29 23.08 44.08 26.62 44.08C26.62 44.08 31.15 44.08 33.51 44.08C35.87 44.08 36.6 42.11 37.52 40.54C37.52 40.54 38.3 38.3 37.52 37.25C37.52 37.25 39.75 36.36 39.88 34.45C39.88 34.45 40.27 33.45 39.35 31.75C39.35 31.75 40.53 30.23 40.79 27.72C40.79 27.72 41.19 26.96 40.01 25.96C40.01 25.96 41.45 22.99 40.86 21.42C40.86 21.42 40.01 18.42 38.3 18.55C38.3 18.55 29.12 19.07 28.46 19.2C27.81 19.33 27.45 19.33 26.19 18.55C26.19 18.55 25.57 17.77 27.41 15.16C27.41 15.16 29.64 10.72 30.17 8.23C30.17 8.23 30.82 3.92 27.28 1.44C27.28 1.44 25.57 0.4 24.52 1.44C24.52 1.44 24.26 1.97 24 5.62C24 5.62 23.74 8.5 21.77 10.98C21.77 10.98 17.62 14.63 16.44 17.64C16.44 17.64 14.58 22.34 11.46 24.88ZM0.38 23.85C-0.9 34.78 2.79 42.31 2.79 42.31L10.12 42.31L10.12 23.86C5.66 23.3 0.38 23.85 0.38 23.85ZM6.68 40.22C5.92 40.22 5.31 39.6 5.31 38.85C5.31 38.09 5.92 37.48 6.68 37.48C7.44 37.48 8.06 38.09 8.06 38.85C8.06 39.6 7.44 40.22 6.68 40.22Z" />
				</g>
			</g>
		</g>
	</g>
</svg>