<?xml version="1.0" standalone="no"?>
<!DOCTYPE svg PUBLIC "-//W3C//DTD SVG 20010904//EN"
 "http://www.w3.org/TR/2001/REC-SVG-20010904/DTD/svg10.dtd">
<svg version="1.0" xmlns="http://www.w3.org/2000/svg"
 width="27.000000pt" height="20.000000pt" viewBox="0 0 27.000000 20.000000"
 preserveAspectRatio="xMidYMid meet">
<metadata>
Created by potrace 1.15, written by Peter Selinger 2001-2017
</metadata>
<g transform="translate(0.000000,20.000000) scale(0.100000,-0.100000)"
fill="#000000" stroke="none">
<path d="M111 178 c1 -13 -8 -44 -21 -70 -22 -43 -27 -48 -58 -48 -27 0 -33
-4 -30 -18 3 -13 14 -17 56 -17 35 0 52 -4 52 -12 0 -8 13 -13 30 -13 17 0 30
5 30 10 0 6 23 10 50 10 43 0 50 3 50 20 0 15 -7 20 -28 20 -37 0 -46 9 -27
31 11 11 14 26 9 43 -8 32 -26 35 -24 4 4 -46 -1 -53 -17 -23 -9 16 -16 41
-17 55 -1 20 -7 26 -29 28 -25 3 -28 0 -26 -20z"/>
</g>
</svg>
